EESchema Schematic File Version 4
EELAYER 30 0
EELAYER END
$Descr A4 11693 8268
encoding utf-8
Sheet 1 1
Title "YAKeyer"
Date "2021-06-23"
Rev "1.0"
Comp ""
Comment1 ""
Comment2 "https://github.com/dhakajack/jackyack"
Comment3 "Based of the JackYack keyer."
Comment4 "YAKeyer - Yet Another Keyer"
$EndDescr
Wire Wire Line
	4950 4050 7750 4050
Wire Wire Line
	7750 4050 8450 4050
Wire Wire Line
	7750 4050 7750 4250
Connection ~ 7750 4050
Wire Wire Line
	4950 4150 8050 4150
Wire Wire Line
	8050 4150 8450 4150
Wire Wire Line
	8050 4150 8050 4250
Connection ~ 8050 4150
Wire Wire Line
	4950 3950 7050 3950
Wire Wire Line
	4950 3850 6550 3850
Wire Wire Line
	4950 4250 5050 4250
Wire Wire Line
	5050 4250 5050 3450
Wire Wire Line
	5050 3450 4650 3450
Wire Wire Line
	4950 3750 4950 2950
Wire Wire Line
	4950 2950 5050 2950
Wire Wire Line
	5450 2950 5550 2950
Wire Wire Line
	5750 2750 5950 2750
Wire Wire Line
	5950 2750 5950 2850
Wire Wire Line
	6150 2750 5950 2750
Connection ~ 5950 2750
Wire Wire Line
	3450 3850 3450 3750
Wire Wire Line
	3450 3750 3850 3750
Wire Wire Line
	3450 3750 3450 3450
Wire Wire Line
	3450 3450 3450 3150
Wire Wire Line
	4250 3450 3450 3450
Connection ~ 3450 3450
Connection ~ 3450 3750
Wire Wire Line
	5750 3150 5750 3250
Wire Wire Line
	5750 3250 5950 3250
Wire Wire Line
	5950 3250 5950 3150
Wire Wire Line
	6150 2850 6150 3250
Wire Wire Line
	6150 3250 5950 3250
Wire Wire Line
	3850 4250 3450 4250
Wire Wire Line
	3450 4250 3450 4150
Wire Wire Line
	3450 4250 3450 4650
Wire Wire Line
	3450 4650 5950 4650
Wire Wire Line
	5950 4650 6850 4650
Wire Wire Line
	6850 4650 7450 4650
Wire Wire Line
	7450 4650 7750 4650
Wire Wire Line
	7750 4650 8050 4650
Wire Wire Line
	8050 4550 8050 4650
Wire Wire Line
	7750 4550 7750 4650
Wire Wire Line
	7450 3950 7450 4650
Wire Wire Line
	6850 3850 6850 4650
Wire Wire Line
	5950 3250 5950 4650
Wire Wire Line
	8450 3950 8350 3950
Wire Wire Line
	8350 3950 8350 4650
Wire Wire Line
	8350 4650 8050 4650
Connection ~ 3450 4650
Connection ~ 3450 4250
Connection ~ 5950 3250
Connection ~ 5950 4650
Connection ~ 6850 4650
Connection ~ 7450 4650
Connection ~ 7750 4650
Connection ~ 8050 4650
$Comp
L Keyer-eagle-import:ATTINY45DIP8 U1
U 1 1 4D826FCC
P 4450 4050
F 0 "U1" H 3950 4500 59  0000 L BNN
F 1 "ATTINY45DIP8" H 3950 3650 59  0000 L BNN
F 2 "Keyer:DIP08" H 4450 4050 50  0001 C CNN
F 3 "" H 4450 4050 50  0001 C CNN
	1    4450 4050
	1    0    0    -1  
$EndComp
$Comp
L Keyer-eagle-import:CAPKIT C1
U 1 1 E6F55D96
P 3450 4050
F 0 "C1" H 3510 4165 59  0000 L BNN
F 1 "100nF" H 3510 3965 59  0000 L BNN
F 2 "Keyer:CAP-PTH-SMALL-KIT" H 3450 4050 50  0001 C CNN
F 3 "" H 3450 4050 50  0001 C CNN
	1    3450 4050
	1    0    0    -1  
$EndComp
$Comp
L Keyer-eagle-import:CAPKIT C2
U 1 1 26F2D291
P 8050 4450
F 0 "C2" H 8110 4565 59  0000 L BNN
F 1 "10n" H 8110 4365 59  0000 L BNN
F 2 "Keyer:CAP-PTH-SMALL-KIT" H 8050 4450 50  0001 C CNN
F 3 "" H 8050 4450 50  0001 C CNN
	1    8050 4450
	1    0    0    -1  
$EndComp
$Comp
L Keyer-eagle-import:AUDIO-JACKPTH J1
U 1 1 70C280EF
P 8650 4050
F 0 "J1" H 8450 4170 59  0000 L BNN
F 1 "PaddleIn" H 8300 4250 59  0000 L BNN
F 2 "Keyer:AUDIO-JACK" H 8650 4050 50  0001 C CNN
F 3 "" H 8650 4050 50  0001 C CNN
	1    8650 4050
	-1   0    0    -1  
$EndComp
$Comp
L Keyer-eagle-import:CAPKIT C3
U 1 1 0EAC045A
P 7750 4450
F 0 "C3" H 7810 4565 59  0000 L BNN
F 1 "10n" H 7810 4365 59  0000 L BNN
F 2 "Keyer:CAP-PTH-SMALL-KIT" H 7750 4450 50  0001 C CNN
F 3 "" H 7750 4450 50  0001 C CNN
	1    7750 4450
	1    0    0    -1  
$EndComp
$Comp
L Keyer-eagle-import:TAC_SWITCHPTH S1
U 1 1 CB7C1894
P 7250 3850
F 0 "S1" H 7400 4000 59  0000 L BNN
F 1 "SPST" H 7350 4100 59  0000 L BNN
F 2 "Keyer:TACTILE-PTH" H 7250 3850 50  0001 C CNN
F 3 "" H 7250 3850 50  0001 C CNN
	1    7250 3850
	1    0    0    -1  
$EndComp
$Comp
L Keyer-eagle-import:EFB?AA40D101 SG1
U 1 1 42ACBB6A
P 6650 3750
F 0 "SG1" H 6550 4000 59  0000 L BNN
F 1 "PiezoBuzzer" H 6400 4100 59  0000 L BNN
F 2 "Keyer:EFBAA40D101" H 6650 3750 50  0001 C CNN
F 3 "" H 6650 3750 50  0001 C CNN
	1    6650 3750
	1    0    0    -1  
$EndComp
$Comp
L Keyer-eagle-import:RESISTORKIT R1
U 1 1 13192460
P 4450 3450
F 0 "R1" H 4400 3500 59  0000 L BNN
F 1 "4k7" H 4350 3300 59  0000 L BNN
F 2 "Keyer:AXIAL-0.3-KIT" H 4450 3450 50  0001 C CNN
F 3 "" H 4450 3450 50  0001 C CNN
	1    4450 3450
	1    0    0    -1  
$EndComp
$Comp
L Keyer-eagle-import:2N2222 T1
U 1 1 789B478A
P 5650 2950
F 0 "T1" H 5500 3050 59  0000 L BNN
F 1 "2N2222" H 5350 3150 59  0000 L BNN
F 2 "Keyer:TO92-EBC-OVAL" H 5650 2950 50  0001 C CNN
F 3 "" H 5650 2950 50  0001 C CNN
	1    5650 2950
	1    0    0    -1  
$EndComp
$Comp
L Keyer-eagle-import:RESISTORKIT R2
U 1 1 8E8A2486
P 5250 2950
F 0 "R2" H 5150 3050 59  0000 L BNN
F 1 "4k7" H 5150 2800 59  0000 L BNN
F 2 "Keyer:AXIAL-0.3-KIT" H 5250 2950 50  0001 C CNN
F 3 "" H 5250 2950 50  0001 C CNN
	1    5250 2950
	1    0    0    -1  
$EndComp
$Comp
L Keyer-eagle-import:CAPKIT C4
U 1 1 A22A0FAC
P 5950 3050
F 0 "C4" H 5950 3150 59  0000 L BNN
F 1 "10n" H 5950 2950 59  0000 L BNN
F 2 "Keyer:CAP-PTH-SMALL-KIT" H 5950 3050 50  0001 C CNN
F 3 "" H 5950 3050 50  0001 C CNN
	1    5950 3050
	1    0    0    -1  
$EndComp
$Comp
L Keyer-eagle-import:736880-49 J2
U 1 1 86FED2C1
P 6250 2750
F 0 "J2" H 6000 2500 59  0000 L BNN
F 1 "KeyOut" H 5800 2400 59  0000 L BNN
F 2 "Keyer:736880-49" H 6250 2750 50  0001 C CNN
F 3 "" H 6250 2750 50  0001 C CNN
	1    6250 2750
	-1   0    0    -1  
$EndComp
$Comp
L Keyer-eagle-import:VCC #P+1
U 1 1 48DD0DF0
P 3450 3150
F 0 "#P+1" H 3450 3150 50  0001 C CNN
F 1 "VCC" H 3410 3290 59  0000 L BNN
F 2 "" H 3450 3150 50  0001 C CNN
F 3 "" H 3450 3150 50  0001 C CNN
	1    3450 3150
	1    0    0    -1  
$EndComp
$Comp
L Keyer-eagle-import:GND #GND1
U 1 1 A7315E89
P 3450 4750
F 0 "#GND1" H 3450 4750 50  0001 C CNN
F 1 "GND" H 3350 4650 59  0000 L BNN
F 2 "" H 3450 4750 50  0001 C CNN
F 3 "" H 3450 4750 50  0001 C CNN
	1    3450 4750
	1    0    0    -1  
$EndComp
$EndSCHEMATC
